<?xml version="1.0" encoding="utf-8"?>
<!-- Generator: Adobe Illustrator 19.0.0, SVG Export Plug-In . SVG Version: 6.00 Build 0)  -->
<svg version="1.1" xmlns="http://www.w3.org/2000/svg" xmlns:xlink="http://www.w3.org/1999/xlink" x="0px" y="0px"
	 viewBox="0 0 250 250" style="enable-background:new 0 0 250 250;" xml:space="preserve">
<style type="text/css">
	.st0{fill:#F07859;}
	.st1{fill:#DD6D57;}
	.st2{fill:#D9B28E;}
	.st3{fill:#E8C29F;}
	.st4{fill:#F9C347;}
	.st5{fill:#2F3E4F;}
	.st6{fill:#FFFFFF;}
</style>
<g id="Layer_5">
	<g id="Layer_4_2_">
		<ellipse id="XMLID_1_" class="st0" cx="125" cy="125.1" rx="120.7" ry="120"/>
	</g>
</g>
<g id="Layer_3">
	<g>
		<path class="st1" d="M182.4,150.4l-45.5-52.2c-1.4-1.6-2.5-1.6-5.4-0.4l-22.9,7.6c-0.6,0.5-20.2,19.4-20.4,20
			c0,0,1.4,9.7,14.9,7.5l22.8-13.5c3.3,2.8-17.1,21-9,19c6.7-1.7,4.2,5.9,11.1,6c16.7,0.2,9.8-0.9,9.5,15.7c0.9,1,17.8,1.3,18.6,2.4
			l16.3,3.4c1.2-1,1.9-2.3,2.3-3.7l7.4-6.5C183.6,154.4,183.8,152,182.4,150.4z"/>
		<path class="st1" d="M184.9,179.1l-3.2,3.8c-2.8,3.3-7.8,3.7-11.1,0.9c0,0-4.3-3.3-4.5-3.3l0.7,0.6c3.2,2.7,3.7,7.6,0.9,10.8
			l-2.8,3.4c-2.7,3.2-7.6,3.7-10.8,0.9l-5-3.9c3.2,2.7,3.6,7.5,0.9,10.6l-2.6,3c-2.7,3.2-7.5,3.6-10.6,0.9l-5.1-4.3
			c2.9,2.4,3.3,6.8,0.8,9.7l-2.4,2.9c-2.4,2.9-6.8,3.3-9.7,0.8l-70.3-61.3c-1.6-1.4-1.8-3.8-0.4-5.4l45.5-52.2
			c1.4-1.6,3.8-1.8,5.4-0.4l9.8,8.6c0.6,0.5,0.9,1.1,1.1,1.7l2.7,2.4c0.5,0.3,1,0.6,1.5,1l68.2,57.5
			C187.3,170.8,187.7,175.8,184.9,179.1z"/>
		<path class="st1" d="M126.2,119.9c2.2-1.4,4.6-2.4,7.3-3.1c6.3-1.5,11-1.2,17.3,0c1.1,0.2,2.1,0.5,3.2,0.9l-17-19.5
			c-1.4-1.6-2.5-1.6-5.4-0.4l-22.9,7.6c-0.6,0.5-20.2,19.4-20.4,20c0,0,1.4,9.7,14.9,7.5l22.8-13.5
			C126,119.6,126.1,119.7,126.2,119.9z"/>
		<path class="st1" d="M62.1,183.2l-9.8-8.5c-0.4-0.4-0.5-1-0.1-1.4l22.3-25.6c0.4-0.4,1-0.5,1.4-0.1l9.8,8.5c0.4,0.4,0.5,1,0.1,1.4
			l-22.3,25.6C63.1,183.5,62.5,183.6,62.1,183.2z"/>
		<path class="st1" d="M73.7,193.8l-9.7-8.4c-0.4-0.4-0.5-1-0.1-1.5l25.4-29.2c0.4-0.4,1-0.5,1.5-0.1l9.7,8.4c0.4,0.4,0.5,1,0.1,1.5
			l-25.4,29.2C74.8,194.1,74.1,194.2,73.7,193.8z"/>
		<path class="st1" d="M86.7,204l-9.7-8.5c-0.4-0.4-0.5-1-0.1-1.4l22.4-25.7c0.4-0.4,1-0.5,1.4-0.1l9.7,8.5c0.4,0.4,0.5,1,0.1,1.4
			l-22.4,25.7C87.8,204.3,87.2,204.3,86.7,204z"/>
		<path class="st1" d="M99.1,214.4l-9.8-8.5c-0.4-0.3-0.4-1-0.1-1.4l19.2-22.1c0.3-0.4,1-0.4,1.4-0.1l9.8,8.5c0.4,0.3,0.4,1,0.1,1.4
			l-19.2,22.1C100.1,214.7,99.5,214.7,99.1,214.4z"/>
		<path class="st1" d="M183.7,152.6l-48.2-55.7c-0.4-0.5-0.4-1.2,0.1-1.6L159,75.2c0.5-0.4,1.2-0.4,1.6,0.1l48.2,55.7
			c0.4,0.5,0.4,1.2-0.1,1.6l-23.3,20.2C184.8,153.2,184.1,153.1,183.7,152.6z"/>
		<path class="st1" d="M47.2,152.5L98,94.5c0.4-0.5,0.4-1.2-0.1-1.7L74.7,72.6c-0.5-0.4-1.2-0.4-1.7,0.1l-50.8,57.9
			c-0.4,0.5-0.4,1.2,0.1,1.7l23.1,20.3C46,153,46.7,152.9,47.2,152.5z"/>
		<circle class="st1" cx="45.7" cy="139.1" r="4.7"/>
	</g>
</g>
<g id="Layer_7">
	<g>
		<path class="st2" d="M191.4,136.4l-45.5-52.2c-1.4-1.6-2.5-1.6-5.4-0.4l-22.9,7.6c-0.6,0.5-20.2,19.4-20.4,20
			c0,0,1.4,9.7,14.9,7.5l22.8-13.5c3.3,2.8-17.1,21-9,19c6.7-1.7,4.2,5.9,11.1,6c16.7,0.2,9.8-0.9,9.5,15.7c0.9,1,17.8,1.3,18.6,2.4
			l16.3,3.4c1.2-1,1.9-2.3,2.3-3.7l7.4-6.5C192.6,140.4,192.8,138,191.4,136.4z"/>
		<path class="st3" d="M193.9,165.1l-3.2,3.8c-2.8,3.3-7.8,3.7-11.1,0.9c0,0-4.3-3.3-4.5-3.3l0.7,0.6c3.2,2.7,3.7,7.6,0.9,10.8
			l-2.8,3.4c-2.7,3.2-7.6,3.7-10.8,0.9l-5-3.9c3.2,2.7,3.6,7.5,0.9,10.6l-2.6,3c-2.7,3.2-7.5,3.6-10.6,0.9l-5.1-4.3
			c2.9,2.4,3.3,6.8,0.8,9.7l-2.4,2.9c-2.4,2.9-6.8,3.3-9.7,0.8l-70.3-61.3c-1.6-1.4-1.8-3.8-0.4-5.4l45.5-52.2
			c1.4-1.6,3.8-1.8,5.4-0.4l9.8,8.6c0.6,0.5,0.9,1.1,1.1,1.7l2.7,2.4c0.5,0.3,1,0.6,1.5,1l68.2,57.5
			C196.3,156.8,196.7,161.8,193.9,165.1z"/>
		<path class="st2" d="M135.2,105.9c2.2-1.4,4.6-2.4,7.3-3.1c6.3-1.5,11-1.2,17.3,0c1.1,0.2,2.1,0.5,3.2,0.9l-17-19.5
			c-1.4-1.6-2.5-1.6-5.4-0.4l-22.9,7.6c-0.6,0.5-20.2,19.4-20.4,20c0,0,1.4,9.7,14.9,7.5l22.8-13.5
			C135,105.6,135.1,105.7,135.2,105.9z"/>
		<path class="st2" d="M71.1,169.2l-9.8-8.5c-0.4-0.4-0.5-1-0.1-1.4l22.3-25.6c0.4-0.4,1-0.5,1.4-0.1l9.8,8.5c0.4,0.4,0.5,1,0.1,1.4
			l-22.3,25.6C72.1,169.5,71.5,169.6,71.1,169.2z"/>
		<path class="st2" d="M82.7,179.8l-9.7-8.4c-0.4-0.4-0.5-1-0.1-1.5l25.4-29.2c0.4-0.4,1-0.5,1.5-0.1l9.7,8.4c0.4,0.4,0.5,1,0.1,1.5
			l-25.4,29.2C83.8,180.1,83.1,180.2,82.7,179.8z"/>
		<path class="st2" d="M95.7,190l-9.7-8.5c-0.4-0.4-0.5-1-0.1-1.4l22.4-25.7c0.4-0.4,1-0.5,1.4-0.1l9.7,8.5c0.4,0.4,0.5,1,0.1,1.4
			l-22.4,25.7C96.8,190.3,96.2,190.3,95.7,190z"/>
		<path class="st2" d="M108.1,200.4l-9.8-8.5c-0.4-0.3-0.4-1-0.1-1.4l19.2-22.1c0.3-0.4,1-0.4,1.4-0.1l9.8,8.5
			c0.4,0.3,0.4,1,0.1,1.4l-19.2,22.1C109.1,200.7,108.5,200.7,108.1,200.4z"/>
		<path class="st4" d="M192.7,138.6l-48.2-55.7c-0.4-0.5-0.4-1.2,0.1-1.6L168,61.2c0.5-0.4,1.2-0.4,1.6,0.1l48.2,55.7
			c0.4,0.5,0.4,1.2-0.1,1.6l-23.3,20.2C193.8,139.2,193.1,139.1,192.7,138.6z"/>
		<path class="st5" d="M56.2,138.5L107,80.5c0.4-0.5,0.4-1.2-0.1-1.7L83.7,58.6c-0.5-0.4-1.2-0.4-1.7,0.1l-50.8,57.9
			c-0.4,0.5-0.4,1.2,0.1,1.7l23.1,20.3C55,139,55.7,138.9,56.2,138.5z"/>
		<circle class="st6" cx="54.7" cy="125.1" r="4.7"/>
	</g>
</g>
</svg>
