<?xml version="1.0" encoding="utf-8"?>
<!-- Generator: Adobe Illustrator 19.0.0, SVG Export Plug-In . SVG Version: 6.00 Build 0)  -->
<svg version="1.1" id="Layer_1" xmlns="http://www.w3.org/2000/svg" xmlns:xlink="http://www.w3.org/1999/xlink" x="0px" y="0px"
	 viewBox="0 0 250 250" style="enable-background:new 0 0 250 250;" xml:space="preserve">
<style type="text/css">
	.st0{fill:#FCD448;}
	.st1{fill:#E5BE45;}
	.st2{fill:#E85F52;}
	.st3{fill:none;stroke:#FFFFFF;stroke-width:8;stroke-linecap:round;stroke-linejoin:round;stroke-miterlimit:10;}
</style>
<g id="Layer_5">
	<g id="Layer_4_2_">
		<ellipse id="XMLID_1_" class="st0" cx="125" cy="125" rx="120.7" ry="120"/>
	</g>
</g>
<g id="Layer_4">
	<g id="Livello_82_1_">
		<path class="st1" d="M194.9,117.9c0-24.1-19.6-43.6-43.7-43.6c-15.9,0-29.8,8.5-37.5,21.1C106,82.7,92.1,74.3,76.2,74.3
			c-24.2,0-43.7,19.5-43.7,43.6c0,12.5,5.3,23.8,13.8,31.8l0,0l62.6,59.7c1.1,1.4,2.9,2.3,4.8,2.3c1.8,0,3.4-0.8,4.5-2l62.9-60l0,0
			C189.6,141.7,194.9,130.4,194.9,117.9"/>
	</g>
	<polyline class="st1" points="32,144.1 77.3,144.1 88,121 113,173.7 136.8,99 151.4,143.6 193.7,143.6 	"/>
</g>
<g id="Livello_82_3_">
	<path class="st2" d="M203.4,106.6c0-24.1-19.6-43.6-43.7-43.6c-15.9,0-29.8,8.5-37.5,21.1C114.5,71.5,100.6,63,84.7,63
		C60.5,63,41,82.5,41,106.6c0,12.5,5.3,23.8,13.8,31.8l0,0l62.6,59.7c1.1,1.4,2.9,2.3,4.8,2.3c1.8,0,3.4-0.8,4.5-2l62.9-60l0,0
		C198.1,130.4,203.4,119.1,203.4,106.6"/>
</g>
<g id="Layer_2">
</g>
<path class="st3" d="M54,108.3c0,0-1.3-12.3,8.3-22c11.7-11.7,22.7-9,22.7-9"/>
</svg>
