<?xml version="1.0" encoding="utf-8"?>
<!-- Generator: Adobe Illustrator 19.0.0, SVG Export Plug-In . SVG Version: 6.00 Build 0)  -->
<svg version="1.1" xmlns="http://www.w3.org/2000/svg" xmlns:xlink="http://www.w3.org/1999/xlink" x="0px" y="0px"
	 viewBox="0 0 250 250" style="enable-background:new 0 0 250 250;" xml:space="preserve">
<style type="text/css">
	.st0{fill:#D56268;}
	.st1{fill:#BC5B64;}
	.st2{fill:#F6B932;}
	.st3{fill:#4DB4B5;}
	.st4{fill:#FFFFFF;}
</style>
<g id="Layer_5">
	<g id="Layer_4_2_">
		<ellipse id="XMLID_1_" class="st0" cx="125" cy="125.8" rx="120.7" ry="120"/>
	</g>
</g>
<g id="Layer_3">
	<g>
		<polygon class="st1" points="117.6,55.3 134.3,56.6 157.7,72 159,88.7 170.7,94.2 177.5,105.4 176.9,118.3 182.4,127 182.4,139.9 
			179.4,148.6 183.1,159.7 179.4,173.9 172.6,180.1 170.7,192.4 161.5,204.8 155.3,206.6 146,215.3 133.7,220.2 122.6,217.1 
			115.1,210.9 110.8,204.1 110.8,62.1 		"/>
		<polygon class="st1" points="102.2,55.3 85.5,56.6 62,72 60.8,88.7 49.1,94.2 42.3,105.4 42.9,118.3 37.3,127 37.3,139.9 
			40.4,148.6 36.7,159.7 40.4,173.9 47.2,180.1 49.1,192.4 58.3,204.8 64.5,206.6 73.8,215.3 86.1,220.2 97.2,217.1 104.6,210.9 
			109,204.1 109,62.1 		"/>
		<g>
			<path class="st1" d="M80.4,133.7c-1.2,5.4-6,9.4-11.7,9.4c-1.5,0-2.8,1.2-2.8,2.8s1.2,2.8,2.8,2.8c8.8,0,16-6.5,17.3-14.9
				c5.4-0.6,10.3-3,14.2-6.9c1.1-1.1,1.1-2.8,0-3.9c-1.1-1.1-2.8-1.1-3.9,0c-3.4,3.5-7.9,5.4-12.8,5.4c-9.9,0-17.9-8-17.9-17.9
				c0-1.5-1.2-2.8-2.8-2.8s-2.8,1.2-2.8,2.8C60,122.3,68.9,132.2,80.4,133.7z"/>
			<path class="st1" d="M92.1,157.6c0-1.5-1.2-2.8-2.8-2.8c-12.9,0-23.4,10.5-23.4,23.4c0,0.1,0,0.3,0,0.4c-1-0.1-2.1-0.2-3.1-0.2
				c-1.5,0-2.8,1.2-2.8,2.8s1.2,2.8,2.8,2.8c9.9,0,17.9,8,17.9,17.9c0,1.5,1.2,2.8,2.8,2.8c1.5,0,2.8-1.2,2.8-2.8
				c0-9.8-6.1-18.2-14.7-21.7c-0.1-0.6-0.1-1.3-0.1-1.9c0-9.9,8-17.9,17.9-17.9C90.9,160.4,92.1,159.2,92.1,157.6z"/>
			<path class="st1" d="M186.5,134.1c0-6.3-2.5-12.3-7-16.7c0.7-2.3,1.1-4.6,1.1-6.9c0-11.4-8.2-20.9-19-23c0.8-2.1,1.3-4.3,1.3-6.5
				c0-7.2-4.4-13.4-10.6-16.1c-10.4-8.3-21.8-13.2-30.5-13.2c-4.8,0-9.2,2.4-11.8,6c-2.6-3.7-6.9-6-11.8-6
				c-8.7,0-20.1,4.9-30.5,13.2c-6.2,2.7-10.6,8.9-10.6,16.1c0,2.3,0.4,4.5,1.3,6.5c-10.8,2.1-19,11.6-19,23c0,2.4,0.4,4.7,1.1,6.9
				c-4.4,4.4-7,10.4-7,16.7c0,4.9,1.5,9.5,4.1,13.3c-2.7,3.9-4.1,8.5-4.1,13.3c0,8.5,4.6,16.3,12,20.4c-0.1,1.1-0.2,2.1-0.2,3.2
				c0,11.5,7.5,21.6,18.4,25.1c4.7,8.1,13.3,13.1,22.8,13.1c10.3,0,19.3-6,23.6-14.6c4.3,8.7,13.3,14.6,23.6,14.6
				c9.4,0,18-5,22.8-13.1c10.9-3.5,18.4-13.6,18.4-25.1c0-1.1-0.1-2.1-0.2-3.2c7.3-4.1,12-11.9,12-20.4c0-4.8-1.4-9.4-4.1-13.3
				C185,143.5,186.5,139,186.5,134.1z M86.4,216.8c-7.8,0-14.8-4.3-18.4-11.2c-0.4-0.7-1-1.2-1.7-1.4c-9.1-2.4-15.4-10.7-15.4-20.1
				c0-1.4,0.1-2.8,0.4-4.2c0.3-1.3-0.4-2.6-1.6-3.1c-6.5-2.9-10.6-9.3-10.6-16.3c0-3.2,0.8-6.3,2.4-9c4.1,3.6,9.5,5.9,15.5,5.9
				c1.5,0,2.8-1.2,2.8-2.8s-1.2-2.8-2.8-2.8c-9.9,0-17.9-8-17.9-17.9c0-5.3,2.3-10.3,6.4-13.7c0.9-0.8,1.2-2,0.8-3.2
				c-0.9-2.2-1.3-4.4-1.3-6.7c0-9.9,8-17.9,17.9-17.9s17.9,8,17.9,17.9c0,1.5,1.2,2.8,2.8,2.8c1.5,0,2.8-1.2,2.8-2.8
				c0-12.4-9.7-22.6-21.9-23.4c-1.1-1.9-1.7-4-1.7-6.1c0-4.9,3-9.2,7.3-11c0.2,0,0.3-0.1,0.5-0.2c1.3-0.5,2.8-0.8,4.2-0.8
				c4.6,0,8.8,2.6,10.8,6.8c0.7,1.4,2.3,1.9,3.7,1.3c1.4-0.7,1.9-2.3,1.3-3.7c-2.3-4.8-6.7-8.2-11.7-9.4c7.1-4.3,14-6.8,19.6-6.8
				c5,0,9,4.1,9,9V102c-2.5-2-5.6-3.2-9-3.2c-1.5,0-2.8,1.2-2.8,2.8c0,1.5,1.2,2.8,2.8,2.8c5,0,9,4.1,9,9v66.5
				c-3.4-4.4-8.3-7.8-14-9.3c-1.5-0.4-3,0.5-3.4,2c-0.4,1.5,0.5,3,2,3.4c9.1,2.4,15.4,10.7,15.4,20.1
				C107.2,207.5,97.9,216.8,86.4,216.8z M170.3,176.9c-1.2,0.5-1.8,1.8-1.6,3.1c0.3,1.4,0.4,2.8,0.4,4.2c0,9.4-6.3,17.7-15.4,20.1
				c-0.7,0.2-1.4,0.7-1.7,1.4c-3.6,6.9-10.7,11.2-18.4,11.2c-11.5,0-20.8-9.3-20.8-20.8c0-0.8,0-1.5-0.1-2.3
				c0.1-0.2,0.1-0.5,0.1-0.7v-91.3c0-5,4.1-9,9-9c1.5,0,2.8-1.2,2.8-2.8c0-1.5-1.2-2.8-2.8-2.8c-3.4,0-6.5,1.2-9,3.2v-24
				c0-5,4.1-9,9-9c5.5,0,12.5,2.4,19.6,6.8c-5,1.2-9.4,4.6-11.7,9.4c-0.7,1.4-0.1,3,1.3,3.7c1.4,0.7,3,0.1,3.7-1.3
				c2-4.2,6.2-6.8,10.8-6.8c1.5,0,2.9,0.3,4.2,0.8c0.2,0.1,0.3,0.1,0.5,0.2c4.3,1.8,7.3,6.1,7.3,11c0,2.2-0.6,4.3-1.7,6.1
				c-12.2,0.8-21.9,11-21.9,23.4c0,1.5,1.2,2.8,2.8,2.8s2.8-1.2,2.8-2.8c0-9.9,8-17.9,17.9-17.9c9.9,0,17.9,8,17.9,17.9
				c0,2.3-0.4,4.6-1.3,6.7c-0.5,1.1-0.1,2.4,0.8,3.2c4.1,3.4,6.4,8.4,6.4,13.7c0,9.9-8,17.9-17.9,17.9c-1.5,0-2.8,1.2-2.8,2.8
				s1.2,2.8,2.8,2.8c5.9,0,11.3-2.2,15.5-5.9c1.6,2.7,2.4,5.8,2.4,9C181,167.7,176.8,174.1,170.3,176.9z"/>
			<path class="st1" d="M157.2,140.1c-5.7,0-10.5-4-11.7-9.4c11.5-1.5,20.4-11.3,20.4-23.2c0-1.5-1.2-2.8-2.8-2.8
				c-1.5,0-2.8,1.2-2.8,2.8c0,9.9-8,17.9-17.9,17.9c-4.8,0-9.4-1.9-12.8-5.4c-1.1-1.1-2.8-1.1-3.9,0c-1.1,1.1-1.1,2.8,0,3.9
				c3.8,3.9,8.8,6.3,14.2,6.9c1.3,8.4,8.6,14.9,17.3,14.9c1.5,0,2.8-1.2,2.8-2.8S158.7,140.1,157.2,140.1z"/>
			<path class="st1" d="M148.3,172.6c-1.1,0-2.1,0.1-3.1,0.2c0-0.1,0-0.3,0-0.4c0-12.9-10.5-23.4-23.4-23.4c-1.5,0-2.8,1.2-2.8,2.8
				s1.2,2.8,2.8,2.8c9.9,0,17.9,8,17.9,17.9c0,0.6,0,1.3-0.1,1.9c-8.6,3.5-14.7,11.9-14.7,21.7c0,1.5,1.2,2.8,2.8,2.8
				s2.8-1.2,2.8-2.8c0-9.9,8-17.9,17.9-17.9c1.5,0,2.8-1.2,2.8-2.8S149.9,172.6,148.3,172.6z"/>
		</g>
	</g>
</g>
<g id="Layer_2">
	<g>
		<polygon class="st2" points="132.6,43.3 149.3,44.6 172.7,60 174,76.7 185.7,82.2 192.5,93.4 191.9,106.3 197.4,115 197.4,127.9 
			194.4,136.6 198.1,147.7 194.4,161.9 187.6,168.1 185.7,180.4 176.5,192.8 170.3,194.6 161,203.3 148.7,208.2 137.6,205.1 
			130.1,198.9 125.8,192.1 125.8,50.1 		"/>
		<polygon class="st3" points="117.2,43.3 100.5,44.6 77,60 75.8,76.7 64.1,82.2 57.3,93.4 57.9,106.3 52.3,115 52.3,127.9 
			55.4,136.6 51.7,147.7 55.4,161.9 62.2,168.1 64.1,180.4 73.3,192.8 79.5,194.6 88.8,203.3 101.1,208.2 112.2,205.1 119.6,198.9 
			124,192.1 124,50.1 		"/>
		<g>
			<path class="st4" d="M95.4,121.7c-1.2,5.4-6,9.4-11.7,9.4c-1.5,0-2.8,1.2-2.8,2.8s1.2,2.8,2.8,2.8c8.8,0,16-6.5,17.3-14.9
				c5.4-0.6,10.3-3,14.2-6.9c1.1-1.1,1.1-2.8,0-3.9c-1.1-1.1-2.8-1.1-3.9,0c-3.4,3.5-7.9,5.4-12.8,5.4c-9.9,0-17.9-8-17.9-17.9
				c0-1.5-1.2-2.8-2.8-2.8c-1.5,0-2.8,1.2-2.8,2.8C75,110.3,83.9,120.2,95.4,121.7z"/>
			<path class="st4" d="M107.1,145.6c0-1.5-1.2-2.8-2.8-2.8c-12.9,0-23.4,10.5-23.4,23.4c0,0.1,0,0.3,0,0.4c-1-0.1-2.1-0.2-3.1-0.2
				c-1.5,0-2.8,1.2-2.8,2.8s1.2,2.8,2.8,2.8c9.9,0,17.9,8,17.9,17.9c0,1.5,1.2,2.8,2.8,2.8c1.5,0,2.8-1.2,2.8-2.8
				c0-9.8-6.1-18.2-14.7-21.7c-0.1-0.6-0.1-1.3-0.1-1.9c0-9.9,8-17.9,17.9-17.9C105.9,148.4,107.1,147.2,107.1,145.6z"/>
			<path class="st4" d="M201.5,122.1c0-6.3-2.5-12.3-7-16.7c0.7-2.3,1.1-4.6,1.1-6.9c0-11.4-8.2-20.9-19-23c0.8-2.1,1.3-4.3,1.3-6.5
				c0-7.2-4.4-13.4-10.6-16.1c-10.4-8.3-21.8-13.2-30.5-13.2c-4.8,0-9.2,2.4-11.8,6c-2.6-3.7-6.9-6-11.8-6
				c-8.7,0-20.1,4.9-30.5,13.2c-6.2,2.7-10.6,8.9-10.6,16.1c0,2.3,0.4,4.5,1.3,6.5c-10.8,2.1-19,11.6-19,23c0,2.4,0.4,4.7,1.1,6.9
				c-4.4,4.4-7,10.4-7,16.7c0,4.9,1.5,9.5,4.1,13.3c-2.7,3.9-4.1,8.5-4.1,13.3c0,8.5,4.6,16.3,12,20.4c-0.1,1.1-0.2,2.1-0.2,3.2
				c0,11.5,7.5,21.6,18.4,25.1c4.7,8.1,13.3,13.1,22.8,13.1c10.3,0,19.3-6,23.6-14.6c4.3,8.7,13.3,14.6,23.6,14.6
				c9.4,0,18-5,22.8-13.1c10.9-3.5,18.4-13.6,18.4-25.1c0-1.1-0.1-2.1-0.2-3.2c7.3-4.1,12-11.9,12-20.4c0-4.8-1.4-9.4-4.1-13.3
				C200,131.5,201.5,127,201.5,122.1z M101.4,204.8c-7.8,0-14.8-4.3-18.4-11.2c-0.4-0.7-1-1.2-1.7-1.4c-9.1-2.4-15.4-10.7-15.4-20.1
				c0-1.4,0.1-2.8,0.4-4.2c0.3-1.3-0.4-2.6-1.6-3.1c-6.5-2.9-10.6-9.3-10.6-16.3c0-3.2,0.8-6.3,2.4-9c4.1,3.6,9.5,5.9,15.5,5.9
				c1.5,0,2.8-1.2,2.8-2.8s-1.2-2.8-2.8-2.8c-9.9,0-17.9-8-17.9-17.9c0-5.3,2.3-10.3,6.4-13.7c0.9-0.8,1.2-2,0.8-3.2
				c-0.9-2.2-1.3-4.4-1.3-6.7c0-9.9,8-17.9,17.9-17.9s17.9,8,17.9,17.9c0,1.5,1.2,2.8,2.8,2.8c1.5,0,2.8-1.2,2.8-2.8
				c0-12.4-9.7-22.6-21.9-23.4c-1.1-1.9-1.7-4-1.7-6.1c0-4.9,3-9.2,7.3-11c0.2,0,0.3-0.1,0.5-0.2c1.3-0.5,2.8-0.8,4.2-0.8
				c4.6,0,8.8,2.6,10.8,6.8c0.7,1.4,2.3,1.9,3.7,1.3c1.4-0.7,1.9-2.3,1.3-3.7c-2.3-4.8-6.7-8.2-11.7-9.4c7.1-4.3,14-6.8,19.6-6.8
				c5,0,9,4.1,9,9V90c-2.5-2-5.6-3.2-9-3.2c-1.5,0-2.8,1.2-2.8,2.8c0,1.5,1.2,2.8,2.8,2.8c5,0,9,4.1,9,9v66.5
				c-3.4-4.4-8.3-7.8-14-9.3c-1.5-0.4-3,0.5-3.4,2c-0.4,1.5,0.5,3,2,3.4c9.1,2.4,15.4,10.7,15.4,20.1
				C122.2,195.5,112.9,204.8,101.4,204.8z M185.3,164.9c-1.2,0.5-1.8,1.8-1.6,3.1c0.3,1.4,0.4,2.8,0.4,4.2c0,9.4-6.3,17.7-15.4,20.1
				c-0.7,0.2-1.4,0.7-1.7,1.4c-3.6,6.9-10.7,11.2-18.4,11.2c-11.5,0-20.8-9.3-20.8-20.8c0-0.8,0-1.5-0.1-2.3
				c0.1-0.2,0.1-0.5,0.1-0.7V89.6c0-5,4.1-9,9-9c1.5,0,2.8-1.2,2.8-2.8c0-1.5-1.2-2.8-2.8-2.8c-3.4,0-6.5,1.2-9,3.2v-24
				c0-5,4.1-9,9-9c5.5,0,12.5,2.4,19.6,6.8c-5,1.2-9.4,4.6-11.7,9.4c-0.7,1.4-0.1,3,1.3,3.7c1.4,0.7,3,0.1,3.7-1.3
				c2-4.2,6.2-6.8,10.8-6.8c1.5,0,2.9,0.3,4.2,0.8c0.2,0.1,0.3,0.1,0.5,0.2c4.3,1.8,7.3,6.1,7.3,11c0,2.2-0.6,4.3-1.7,6.1
				c-12.2,0.8-21.9,11-21.9,23.4c0,1.5,1.2,2.8,2.8,2.8s2.8-1.2,2.8-2.8c0-9.9,8-17.9,17.9-17.9c9.9,0,17.9,8,17.9,17.9
				c0,2.3-0.4,4.6-1.3,6.7c-0.5,1.1-0.1,2.4,0.8,3.2c4.1,3.4,6.4,8.4,6.4,13.7c0,9.9-8,17.9-17.9,17.9c-1.5,0-2.8,1.2-2.8,2.8
				s1.2,2.8,2.8,2.8c5.9,0,11.3-2.2,15.5-5.9c1.6,2.7,2.4,5.8,2.4,9C196,155.7,191.8,162.1,185.3,164.9z"/>
			<path class="st4" d="M172.2,128.1c-5.7,0-10.5-4-11.7-9.4c11.5-1.5,20.4-11.3,20.4-23.2c0-1.5-1.2-2.8-2.8-2.8
				c-1.5,0-2.8,1.2-2.8,2.8c0,9.9-8,17.9-17.9,17.9c-4.8,0-9.4-1.9-12.8-5.4c-1.1-1.1-2.8-1.1-3.9,0c-1.1,1.1-1.1,2.8,0,3.9
				c3.8,3.9,8.8,6.3,14.2,6.9c1.3,8.4,8.6,14.9,17.3,14.9c1.5,0,2.8-1.2,2.8-2.8S173.7,128.1,172.2,128.1z"/>
			<path class="st4" d="M163.3,160.6c-1.1,0-2.1,0.1-3.1,0.2c0-0.1,0-0.3,0-0.4c0-12.9-10.5-23.4-23.4-23.4c-1.5,0-2.8,1.2-2.8,2.8
				s1.2,2.8,2.8,2.8c9.9,0,17.9,8,17.9,17.9c0,0.6,0,1.3-0.1,1.9c-8.6,3.5-14.7,11.9-14.7,21.7c0,1.5,1.2,2.8,2.8,2.8
				s2.8-1.2,2.8-2.8c0-9.9,8-17.9,17.9-17.9c1.5,0,2.8-1.2,2.8-2.8S164.9,160.6,163.3,160.6z"/>
		</g>
	</g>
</g>
</svg>
