<?xml version="1.0" encoding="utf-8"?>
<!-- Generator: Adobe Illustrator 19.0.0, SVG Export Plug-In . SVG Version: 6.00 Build 0)  -->
<svg version="1.1" id="Layer_1" xmlns="http://www.w3.org/2000/svg" xmlns:xlink="http://www.w3.org/1999/xlink" x="0px" y="0px"
	 viewBox="0 0 250 250" style="enable-background:new 0 0 250 250;" xml:space="preserve">
<style type="text/css">
	.st0{fill:#F9C132;}
	.st1{display:none;}
	.st2{display:inline;fill:#FFFFFF;}
	.st3{display:inline;}
	.st4{fill:#EA9678;}
	.st5{fill:#D1A359;}
	.st6{fill:#FDFFFE;}
	.st7{fill:#CD6146;}
</style>
<g id="Layer_5">
	<g id="Layer_4_2_">
		<ellipse id="XMLID_1_" class="st0" cx="125" cy="125.1" rx="120.7" ry="120"/>
	</g>
</g>
<g id="Layer_3" class="st1">
	<path class="st2" d="M68.7,189.8c0-43.7,0-87.4,0-131c0.8,0,16.6,0,24-0.1c1.4,0,2,0.5,2.6,1.7c9.4,18.7,18.9,37.4,28.3,56.2
		c2,4,0.4,6.5-4.1,6.5c-5.3,0-10.7,0-16,0c-3.5,0-5.6,2.1-5.8,5.7c0,1.5,0,2.9,0,4.4c0,1.4,0,2.7,0,4.5c-2.8,0-5.5,0-8.1,0
		s-5.2,0-7.8,0c0,4.8-0.5,9.5,0.1,14.1c1,7.3,6,11.7,13.7,13.1c0.5,0.1,1,0.1,1.6,0.2c0,5.1,0.4,10.1-0.1,15.1
		c-0.5,5.6-5.7,9.8-11.3,9.8C80.1,189.9,74.5,189.8,68.7,189.8z"/>
	<g class="st3">
		<g>
			<path class="st4" d="M176.7,78.5c-21.4-6.9-43.3,1.7-48.9,19.1c-2.9,9.1-0.8,18.8,4.9,26.9c-2.6,3.2-6.5,7.2-12.2,10.8
				c7.7,2.5,18,4.7,27.2,2.4c2.7,1.5,5.6,2.8,8.7,3.8c21.4,6.9,43.3-1.7,48.9-19.1S198.1,85.4,176.7,78.5z"/>
		</g>
	</g>
	<path class="st2" d="M177.3,84.9c-4.8,0-9,2.3-11.5,5.9c-2.6-3.6-6.8-5.9-11.5-5.9c-7.8,0-14.2,6.3-14.2,14.2c0,3.4,1.2,6.5,3.2,9
		l22.5,27.5l22.5-27.5c2-2.4,3.2-5.6,3.2-9C191.4,91.2,185.1,84.9,177.3,84.9z"/>
</g>
<g id="Layer_6">
	<g>
		<path class="st5" d="M179.1,193.4L179.1,193.4c0-6.1,20.4-18.4,20.4-31.6c0-15.3-14.3-27.5-31.6-32.6c7.1-8.2,11.2-17.3,11.2-28.6
			c0-28.6-29.6-52-67.3-52c-35.7,0-75.5,21.4-75.5,52c0,21.4,16.3,36.7,23.5,42.8c-1,12.2-6.1,17.3-6.1,17.3l-12.2,10.2h15.3
			c16.3,0,29.6-5.1,37.7-11.2c0,1,0,1,0,2c0,20.4,22.4,36.7,51,36.7c2,0,4.1,0,6.1,0c4.1,5.1,17.3,14.3,34.7,14.3
			C187.3,211.7,179.1,207.7,179.1,193.4z M111.8,58.8c31.6,0,57.1,19.4,57.1,41.8s-26.5,41.8-59.2,41.8c-2,0-6.1,0-8.2,0h-3.1l-1,2
			c-3.1,4.1-15.3,12.2-31.6,15.3c1-4.1,1-10.2,1-18.4v-3.1c-10.2-8.2-21.4-22.4-21.4-36.7C45.5,79.2,78.2,58.8,111.8,58.8z"/>
		<path class="st5" d="M123.8,74.6c-5.4,0-10.2,2.7-13.2,6.8c-2.9-4.1-7.7-6.8-13.2-6.8c-8.9,0-16.2,7.2-16.2,16.2
			c0,3.9,1.4,7.4,3.7,10.2l25.7,31.4l25.7-31.4c2.3-2.8,3.7-6.4,3.7-10.2C140,81.8,132.7,74.6,123.8,74.6z"/>
	</g>
</g>
<path class="st6" d="M186.1,185.4L186.1,185.4c0-6.1,20.4-18.4,20.4-31.6c0-15.3-14.3-27.5-31.6-32.6c7.1-8.2,11.2-17.3,11.2-28.6
	c0-28.6-29.6-52-67.3-52c-35.7,0-75.5,21.4-75.5,52c0,21.4,16.3,36.7,23.5,42.8c-1,12.2-6.1,17.3-6.1,17.3l-12.2,10.2h15.3
	c16.3,0,29.6-5.1,37.7-11.2c0,1,0,1,0,2c0,20.4,22.4,36.7,51,36.7c2,0,4.1,0,6.1,0c4.1,5.1,17.3,14.3,34.7,14.3
	C194.3,203.7,186.1,199.7,186.1,185.4z M118.8,50.8c31.6,0,57.1,19.4,57.1,41.8s-26.5,41.8-59.2,41.8c-2,0-6.1,0-8.2,0h-3.1l-1,2
	c-3.1,4.1-15.3,12.2-31.6,15.3c1-4.1,1-10.2,1-18.4v-3.1c-10.2-8.2-21.4-22.4-21.4-36.7C52.5,71.2,85.2,50.8,118.8,50.8z"/>
<path class="st7" d="M130.8,66.6c-5.4,0-10.2,2.7-13.2,6.8c-2.9-4.1-7.7-6.8-13.2-6.8c-8.9,0-16.2,7.2-16.2,16.2
	c0,3.9,1.4,7.4,3.7,10.2l25.7,31.4L143.3,93c2.3-2.8,3.7-6.4,3.7-10.2C147,73.8,139.7,66.6,130.8,66.6z"/>
</svg>
