<?xml version="1.0" encoding="utf-8"?>
<!-- Generator: Adobe Illustrator 19.0.0, SVG Export Plug-In . SVG Version: 6.00 Build 0)  -->
<svg version="1.1" xmlns="http://www.w3.org/2000/svg" xmlns:xlink="http://www.w3.org/1999/xlink" x="0px" y="0px"
	 viewBox="0 0 250 250" style="enable-background:new 0 0 250 250;" xml:space="preserve">
<style type="text/css">
	.st0{fill:#3389AE;}
	.st1{display:none;}
	.st2{display:inline;fill:#5F9670;}
	.st3{display:inline;fill:#F3B334;}
	.st4{display:inline;fill:#DDCD58;}
	.st5{display:inline;fill:#535346;}
	.st6{display:inline;fill:#F6DB38;}
	.st7{fill:#327C96;}
	.st8{fill:#FDDE5B;}
	.st9{fill:#23251F;}
	.st10{fill:#464543;}
</style>
<g id="Layer_5">
	<g id="Layer_4_2_">
		<ellipse id="XMLID_1_" class="st0" cx="125" cy="125" rx="120.7" ry="120"/>
	</g>
</g>
<g id="Layer_4" class="st1">
	<path class="st2" d="M160.4,214.5H69.6c-6.2,0-11.2-5.1-11.2-11.2V189c0-6.2,5.1-11.2,11.2-11.2h90.8c6.2,0,11.2,5.1,11.2,11.2
		v14.2C171.7,209.4,166.6,214.5,160.4,214.5z"/>
	<polygon class="st2" points="189.5,62.5 189.5,73.5 173.8,73.5 153.3,94 145.5,86.2 169.2,62.5 	"/>
	<polygon class="st2" points="189.5,120 189.5,109 173.8,109 153.3,88.5 145.5,96.3 169.2,120 	"/>
	<path class="st2" d="M46,116c0,0,6.3-30.7,11.2-40.9c4.4-9,17-22.5,38.2-20.8C128.1,57,145.2,84,145.2,84h-14
		c0,0-11.1-20.1-41-20.5c-13-0.2-20.8,9.4-24.8,15.9c-4.6,7.6-8.6,34.1-8.6,34.1L46,116z"/>
	<path class="st2" d="M102.4,108.1l-37.7,37.7c-7.1,7.1-18.6,7.1-25.7,0l0,0c-7.1-7.1-7.1-18.6,0-25.7l37.7-37.7
		c7.1-7.1,18.6-7.1,25.7,0l0,0C109.5,89.4,109.5,101,102.4,108.1z"/>
	<path class="st2" d="M105.1,201l-60.8-60.8c-5.5-5.5-5.5-14.6,0-20.2l0,0c5.5-5.5,14.6-5.5,20.2,0l60.8,60.8
		c5.5,5.5,5.5,14.6,0,20.2l0,0C119.7,206.5,110.6,206.5,105.1,201z"/>
	<circle class="st2" cx="53.8" cy="130.2" r="7.8"/>
	<path class="st2" d="M151.8,107.7H90.6c-7.8,0-14.2-6.4-14.2-14.2v0c0-7.8,6.4-14.2,14.2-14.2h61.1c7.8,0,14.2,6.4,14.2,14.2v0
		C166,101.3,159.6,107.7,151.8,107.7z"/>
	<circle class="st2" cx="90.5" cy="93.5" r="7.8"/>
	<circle class="st2" cx="113.8" cy="190.2" r="7.8"/>
</g>
<g id="Layer_3" class="st1">
	<path class="st3" d="M169.4,205.5H78.6c-6.2,0-11.2-5.1-11.2-11.2V180c0-6.2,5.1-11.2,11.2-11.2h90.8c6.2,0,11.2,5.1,11.2,11.2
		v14.2C180.7,200.4,175.6,205.5,169.4,205.5z"/>
	<circle class="st4" cx="128" cy="176.5" r="7.8"/>
	<polygon class="st5" points="198.5,53.5 198.5,64.5 182.8,64.5 162.3,85 154.5,77.2 178.2,53.5 	"/>
	<polygon class="st4" points="181.7,48.5 181.5,48.7 181.5,48.5 	"/>
	<polygon class="st4" points="181.7,48.5 181.7,48.5 181.7,48.5 	"/>
	<polygon class="st5" points="198.5,111 198.5,100 182.8,100 162.3,79.5 154.5,87.3 178.2,111 	"/>
	<path class="st6" d="M55,107c0,0,6.3-30.7,11.2-40.9c4.4-9,17-22.5,38.2-20.8C137.1,48,154.2,75,154.2,75h-14
		c0,0-11.1-20.1-41-20.5c-13-0.2-20.8,9.4-24.8,15.9c-4.6,7.6-8.6,34.1-8.6,34.1L55,107z"/>
	<path class="st3" d="M111.4,99.1l-37.7,37.7c-7.1,7.1-18.6,7.1-25.7,0l0,0c-7.1-7.1-7.1-18.6,0-25.7l37.7-37.7
		c7.1-7.1,18.6-7.1,25.7,0l0,0C118.5,80.4,118.5,92,111.4,99.1z"/>
	<path class="st6" d="M114.1,192l-60.8-60.8c-5.5-5.5-5.5-14.6,0-20.2l0,0c5.5-5.5,14.6-5.5,20.2,0l60.8,60.8
		c5.5,5.5,5.5,14.6,0,20.2l0,0C128.7,197.5,119.6,197.5,114.1,192z"/>
	<circle class="st3" cx="62.8" cy="121.2" r="7.8"/>
	<path class="st6" d="M160.8,98.7H99.6c-7.8,0-14.2-6.4-14.2-14.2v0c0-7.8,6.4-14.2,14.2-14.2h61.1c7.8,0,14.2,6.4,14.2,14.2v0
		C175,92.3,168.6,98.7,160.8,98.7z"/>
	<circle class="st3" cx="99.5" cy="84.5" r="7.8"/>
	<circle class="st3" cx="122.8" cy="181.2" r="7.8"/>
</g>
<g id="Layer_6">
	<g>
		<g>
			<path class="st7" d="M212.4,110.3c-20.6-3.2-59.9-3.9-88.2,3.9c-1.9,0-10.3,0-12.2,0c-28.3-7.7-67.6-7.1-88.2-3.9
				c-2.6,0.6-2.6,11.6-0.6,12.2c3.9,1.9,5.8,5.8,5.8,5.8s1.3,3.9,4.5,18c3.2,14.2,11.6,16.8,11.6,16.8s10.3,2.6,21.9,2.6
				s18.7-0.6,26.4-4.5s10.9-14.2,10.9-14.2s3.9-9,6.4-17.4c0.6-2.6,13.5-2.6,14.2,0c2.6,8.4,6.4,17.4,6.4,17.4s3.2,10.3,10.9,14.2
				c7.7,3.9,14.8,4.5,26.4,4.5c11.6,0,21.9-2.6,21.9-2.6s8.4-1.9,11.6-16.7c3.2-14.8,4.5-18,4.5-18s1.9-3.9,5.8-5.8
				C215,121.9,215,110.3,212.4,110.3z"/>
		</g>
		<g>
			<path class="st7" d="M36.8,117c17.9-1.7,51.5-3.1,67.2,3c4.2,1.6-4.8,30.6-16,36.3c-6.3,3.2-12.2,3.4-21.8,3.4
				c-9.6,0-18.1-1.9-18.1-1.9s-5.2-1.9-9.6-12.6C32,129,36.2,117.9,36.8,117z"/>
		</g>
		<g>
			<path class="st7" d="M104,119.9c-7.1-2.7-17.8-3.9-29-4.3c-3,9-6.7,17.8-9.7,26.5c-2,5.7-4,11.4-6,17.2c2.2,0.2,4.5,0.3,6.9,0.3
				c9.6,0,15.5-0.2,21.8-3.4C99.2,150.5,108.2,121.5,104,119.9z"/>
		</g>
		<g>
			<path class="st7" d="M198.2,117c-17.9-1.7-51.5-3.1-67.2,3c-4.2,1.6,4.8,30.6,16,36.3c6.3,3.2,12.2,3.4,21.8,3.4
				c9.6,0,18.1-1.9,18.1-1.9s5.2-1.9,9.6-12.6C203,129,198.9,117.9,198.2,117z"/>
		</g>
		<g>
			<path class="st7" d="M198.2,117c-7.4-0.7-17.5-1.3-27.8-1.4c-4.2,14.4-8.5,28.8-12.8,43.2c0,0.1-0.1,0.3-0.1,0.4
				c3.3,0.4,7,0.4,11.4,0.4c9.6,0,18.1-1.9,18.1-1.9s5.2-1.9,9.6-12.6C203,129,198.9,117.9,198.2,117z"/>
		</g>
	</g>
</g>
<g id="Layer_2">
	<g>
		<g>
			<path class="st8" d="M219.4,101.3c-20.6-3.2-59.9-3.9-88.2,3.9c-1.9,0-10.3,0-12.2,0c-28.3-7.7-67.6-7.1-88.2-3.9
				c-2.6,0.6-2.6,11.6-0.6,12.2c3.9,1.9,5.8,5.8,5.8,5.8s1.3,3.9,4.5,18c3.2,14.2,11.6,16.8,11.6,16.8s10.3,2.6,21.9,2.6
				s18.7-0.6,26.4-4.5s10.9-14.2,10.9-14.2s3.9-9,6.4-17.4c0.6-2.6,13.5-2.6,14.2,0c2.6,8.4,6.4,17.4,6.4,17.4s3.2,10.3,10.9,14.2
				c7.7,3.9,14.8,4.5,26.4,4.5c11.6,0,21.9-2.6,21.9-2.6s8.4-1.9,11.6-16.7c3.2-14.8,4.5-18,4.5-18s1.9-3.9,5.8-5.8
				C222,112.9,222,101.3,219.4,101.3z"/>
		</g>
		<g>
			<path class="st9" d="M43.8,108c17.9-1.7,51.5-3.1,67.2,3c4.2,1.6-4.8,30.6-16,36.3c-6.3,3.2-12.2,3.4-21.8,3.4
				c-9.6,0-18.1-1.9-18.1-1.9s-5.2-1.9-9.6-12.6C39,120,43.2,108.9,43.8,108z"/>
		</g>
		<g>
			<path class="st10" d="M111,110.9c-7.1-2.7-17.8-3.9-29-4.3c-3,9-6.7,17.8-9.7,26.5c-2,5.7-4,11.4-6,17.2c2.2,0.2,4.5,0.3,6.9,0.3
				c9.6,0,15.5-0.2,21.8-3.4C106.2,141.5,115.2,112.5,111,110.9z"/>
		</g>
		<g>
			<path class="st9" d="M205.2,108c-17.9-1.7-51.5-3.1-67.2,3c-4.2,1.6,4.8,30.6,16,36.3c6.3,3.2,12.2,3.4,21.8,3.4
				c9.6,0,18.1-1.9,18.1-1.9s5.2-1.9,9.6-12.6C210,120,205.9,108.9,205.2,108z"/>
		</g>
		<g>
			<path class="st10" d="M205.2,108c-7.4-0.7-17.5-1.3-27.8-1.4c-4.2,14.4-8.5,28.8-12.8,43.2c0,0.1-0.1,0.3-0.1,0.4
				c3.3,0.4,7,0.4,11.4,0.4c9.6,0,18.1-1.9,18.1-1.9s5.2-1.9,9.6-12.6C210,120,205.9,108.9,205.2,108z"/>
		</g>
	</g>
</g>
</svg>
