<?xml version="1.0" encoding="utf-8"?>
<!-- Generator: Adobe Illustrator 19.0.0, SVG Export Plug-In . SVG Version: 6.00 Build 0)  -->
<svg version="1.1" xmlns="http://www.w3.org/2000/svg" xmlns:xlink="http://www.w3.org/1999/xlink" x="0px" y="0px"
	 viewBox="0 0 250 250" style="enable-background:new 0 0 250 250;" xml:space="preserve">
<style type="text/css">
	.st0{fill:#3C6E7F;}
	.st1{display:none;}
	.st2{display:inline;fill:#549678;}
	.st3{display:inline;fill:#FFFFFF;}
	.st4{display:inline;fill:#68B0DD;}
	.st5{display:inline;fill:#D46B6F;}
	.st6{display:inline;fill:#F8CD48;}
	.st7{display:inline;fill:#E0B031;}
	.st8{display:inline;}
	.st9{fill:#F8F4F5;}
	.st10{fill:#D46B6F;}
	.st11{fill:#335D68;}
	.st12{fill:#EADD84;}
	.st13{fill:none;stroke:#EADD84;stroke-width:7.4295;stroke-miterlimit:10;}
	.st14{fill:#DC6450;stroke:#DC6450;stroke-width:2.8636;stroke-miterlimit:10;}
</style>
<g id="Layer_6">
	<g id="Layer_4_1_">
		<ellipse id="XMLID_5_" class="st0" cx="125" cy="125.1" rx="120.7" ry="120"/>
	</g>
</g>
<g id="Layer_4" class="st1">
</g>
<g id="Layer_9" class="st1">
	<circle class="st2" cx="116" cy="135.7" r="84"/>
</g>
<g id="Layer_7" class="st1">
	<circle class="st3" cx="125.4" cy="125" r="84"/>
	<circle class="st4" cx="125.4" cy="125" r="65.4"/>
	<circle class="st5" cx="125.4" cy="125" r="44.5"/>
	<circle class="st6" cx="125.4" cy="125" r="21.6"/>
	<circle class="st7" cx="125.4" cy="125" r="6.2"/>
	<g class="st8">
		<path class="st9" d="M197.6,80.1l-73.8,42.4c-1.2,0.7-1.5,2.4-0.7,3.8s2.4,2,3.6,1.3l73.8-42.4l0.6-3.8L197.6,80.1z"/>
		<polygon class="st10" points="178.5,91.2 197.7,80.1 200.2,65.7 179.4,77.7 176.9,92.1 		"/>
		<polygon class="st10" points="181.4,96.3 200.6,85.2 214.3,90.3 193.5,102.2 179.8,97.2 		"/>
	</g>
</g>
<g id="Layer_8">
	<g>
		<rect x="109.3" y="66.6" class="st11" width="14.7" height="122.6"/>
		<rect x="80" y="180.9" class="st11" width="74.3" height="15.2"/>
		<polygon class="st11" points="182.5,152 203,152 192.8,121.8 182.5,91.7 172.3,121.8 162,152 		"/>
		<rect x="122.8" y="66.7" class="st11" width="55.1" height="11.4"/>
		<circle class="st11" cx="182.9" cy="72.7" r="9.5"/>
		<path class="st11" d="M156.8,148.5c0.5,13.6,12.1,24.5,26.2,24.5c14.2,0,25.7-10.9,26.2-24.5H156.8z"/>
		<polygon class="st11" points="50.3,152 29.8,152 40,121.8 50.3,91.7 60.5,121.8 70.8,152 		"/>
		<rect x="55" y="66.7" class="st11" width="55.1" height="11.4"/>
		<circle class="st11" cx="49.9" cy="72.7" r="9.5"/>
		<path class="st11" d="M76,148.5C75.4,162.2,63.9,173,49.8,173s-25.7-10.9-26.2-24.5H76z"/>
	</g>
</g>
<g id="Layer_5">
	<g>
		<rect x="119.3" y="58.6" class="st12" width="14.7" height="122.6"/>
		<rect x="90" y="172.9" class="st12" width="74.3" height="15.2"/>
		<polygon class="st13" points="192.5,144 213,144 202.8,113.8 192.5,83.7 182.3,113.8 172,144 		"/>
		<rect x="132.8" y="58.7" class="st12" width="55.1" height="11.4"/>
		<circle class="st12" cx="192.9" cy="64.7" r="9.5"/>
		<path class="st14" d="M166.8,140.5c0.5,13.6,12.1,24.5,26.2,24.5c14.2,0,25.7-10.9,26.2-24.5H166.8z"/>
		<polygon class="st13" points="60.3,144 39.8,144 50,113.8 60.3,83.7 70.5,113.8 80.8,144 		"/>
		<rect x="65" y="58.7" class="st12" width="55.1" height="11.4"/>
		<circle class="st12" cx="59.9" cy="64.7" r="9.5"/>
		<path class="st14" d="M86,140.5C85.4,154.2,73.9,165,59.8,165s-25.7-10.9-26.2-24.5H86z"/>
	</g>
</g>
</svg>
