<?xml version="1.0" encoding="utf-8"?>
<!-- Generator: Adobe Illustrator 19.2.0, SVG Export Plug-In . SVG Version: 6.00 Build 0)  -->
<svg version="1.1" id="Layer_1" xmlns="http://www.w3.org/2000/svg" xmlns:xlink="http://www.w3.org/1999/xlink" x="0px" y="0px"
	 viewBox="0 0 100 100" style="enable-background:new 0 0 100 100;" xml:space="preserve">
<style type="text/css">
	.st0{clip-path:url(#SVGID_2_);}
	.st1{fill:#F4EEE5;}
	.st2{fill:#F2CEA5;}
	.st3{fill:#527990;}
	.st4{fill:#D4B08C;}
	.st5{fill:#FDDFB0;}
	.st6{fill:none;stroke:#A3705F;stroke-width:1.7;stroke-miterlimit:10;}
	.st7{fill:#262626;}
	.st8{fill:none;stroke:#CC9872;stroke-width:2;}
	.st9{fill:none;stroke:#BB8660;stroke-width:2;}
	.st10{fill:#7E5449;}
	.st11{fill:#475F7F;}
	.st12{fill:#545465;}
</style>
<g>
	<defs>
		<circle id="SVGID_1_" cx="50" cy="50" r="49.4"/>
	</defs>
	<clipPath id="SVGID_2_">
		<use xlink:href="#SVGID_1_"  style="overflow:visible;"/>
	</clipPath>
	<g class="st0">
		<circle class="st1" cx="50" cy="50" r="49.4"/>
		<g>
			<g>
				<path class="st2" d="M71.5,75c-0.8,0.1-1.5,0.3-2.1,0.6c-3.4,2-14,7.4-19.4,8.8c-5.4-1.3-16-6.7-19.4-8.8
					c-0.5-0.3-1.3-0.5-2.1-0.6c2-0.5,3.8-1,5.3-1.4c1.9-0.5,5.7-1.4,5.7-4.7v-8c0-0.4,0-0.7,0-0.7h20.8c0,0,0,2.9,0,5.8V69
					c0,3.2,3.8,4.2,5.7,4.7C67.6,74,69.5,74.5,71.5,75z"/>
				<g>
					<g>
						<path class="st3" d="M85.3,102.5c1.8,0,3.3-1.5,3.3-3.3V83.9c0-4.8-3.7-9.9-8.3-11.3l-17.2-3.2C59.5,72.2,54.3,76,50,76
							s-9.5-3.8-13.2-6.6l-17.2,3.2c-4.5,1.5-8.3,6.6-8.3,11.3v15.3c0,1.8,1.5,3.3,3.3,3.3H85.3z"/>
					</g>
				</g>
				<path class="st4" d="M60.4,58.2c0,0,0,2.9,0,5.8c-3.4,2.6-8,3.6-10.6,3.8h0.4c-2.9-0.2-7-1.5-10.7-4.7v-4.2
					c0.1-0.3,0.2-0.5,0.2-0.7c0.1-0.3,0.1-0.5,0.1-0.6c0.3,0.2,1,0.4,2,0.6c3.8,0.5,11.9,0.4,16.4,0H60.4z"/>
				<g>
					<g>
						<path class="st5" d="M73.2,35.9c0,1-0.1,2.1-0.2,3.1c0,0.2,0,0.3-0.1,0.5C71.3,52,61.7,65.7,50,65.7
							c-11.8,0-21.4-13.8-23-26.3c0-0.1,0-0.3,0-0.4c-0.1-1-0.2-2.1-0.2-3.1c0-2.5,0.4-4.8,1-7.1c1.1-3.9,3.2-7.5,5.9-10.3
							c0.1-0.1,0.3-0.3,0.4-0.4c4.1-4.1,9.7-6.7,15.8-6.7c6.1,0,11.6,2.5,15.8,6.7c0.1,0.1,0.2,0.2,0.4,0.4c2.8,2.9,4.9,6.4,6,10.4
							v0C72.8,31.1,73.2,33.5,73.2,35.9z"/>
						<path class="st6" d="M45.7,54.7c0.8,1,2.3,1.6,4.2,1.7c2,0.1,4-0.6,5.1-1.7"/>
						<g>
							<circle class="st7" cx="59.3" cy="39.2" r="2.1"/>
							<circle class="st7" cx="40.6" cy="39.2" r="2.1"/>
							<path class="st8" d="M34.4,36c0,0,1.1-3.1,6.3-3.1c3.5,0,5.6,1.6,6.6,3.1"/>
							<path class="st9" d="M65.6,36c0,0-1.1-3.1-6.3-3.1c-5,0-7.3,3.1-7.3,5.2c0,2,0,9.3,0,9.3"/>
						</g>
						<g>
							<path class="st10" d="M26.8,35.9c0-6.7,2.7-12.9,6.9-17.4c-0.1,8-2.6,15.2-6.7,20.9C26.9,38.2,26.8,37.1,26.8,35.9z"/>
							<path class="st10" d="M50,11.4c6.1,0.5,11.6,2.5,15.8,6.7c-4.2,4.3-9.8,7-15.8,7c-6,0-13.9,2.9-18.2-1.4
								C31.1,18.2,41.6,10.8,50,11.4z"/>
							<path class="st10" d="M73.2,35.9c0,1.2-0.1,2.4-0.2,3.6c-4.2-5.7-6.7-13.1-6.8-21.1C70.5,22.9,73.2,29.1,73.2,35.9z"/>
						</g>
					</g>
					<g>
						<path class="st10" d="M31.8,30.6c-0.7,1.8-1.7,9.9-1.7,9.9L27,39c-0.1-1-0.2-2.1-0.2-3.1c0-2.5,0.4-4.8,1-7.1L31.8,30.6z"/>
					</g>
					<g>
						<path class="st10" d="M73.2,35.9c0,1-0.1,2.1-0.2,3.1l-3.1,1.6c0,0-1-8.2-1.7-9.9l4-1.8C72.8,31.1,73.2,33.5,73.2,35.9z"/>
					</g>
				</g>
			</g>
			<g>
				<g>
					<path class="st8" d="M52.3,36"/>
					<path class="st8" d="M65.3,36"/>
				</g>
			</g>
			<g>
				<g>
					<path class="st11" d="M50,76.4l-4.7,5c-0.5,0.5-1.3,0.5-1.7-0.1l-8.3-12l2.6-2.8c0.4-0.4,1.1-0.5,1.6,0L50,76.4z"/>
				</g>
				<g>
					<path class="st11" d="M50,76.4l4.7,5c0.5,0.5,1.3,0.5,1.7-0.1l8.3-12L62,66.4c-0.4-0.4-1.1-0.5-1.6,0L50,76.4z"/>
				</g>
				<g>
					<polygon class="st12" points="51.6,80.5 50,81.2 48.4,80.5 46.7,101 50,101 53.3,101 					"/>
				</g>
				<g>
					<path class="st12" d="M52.3,80c0,0.7-0.5,1.2-1.1,1.2h-2.3c-0.6,0-1.1-0.5-1.1-1.2v-2.4c0-0.7,0.5-1.2,1.1-1.2h2.3
						c0.6,0,1.1,0.5,1.1,1.2V80z"/>
				</g>
			</g>
		</g>
	</g>
</g>
</svg>
