<?xml version="1.0" encoding="utf-8"?>
<!-- Generator: Adobe Illustrator 19.2.0, SVG Export Plug-In . SVG Version: 6.00 Build 0)  -->
<svg version="1.1" id="Layer_1" xmlns="http://www.w3.org/2000/svg" xmlns:xlink="http://www.w3.org/1999/xlink" x="0px" y="0px"
	 viewBox="0 0 100 100" style="enable-background:new 0 0 100 100;" xml:space="preserve">
<style type="text/css">
	.st0{clip-path:url(#SVGID_2_);}
	.st1{fill:#F4EEE5;}
	.st2{fill:#F2CEA5;}
	.st3{fill:#333333;}
	.st4{fill:#E2E9EE;}
	.st5{fill:#282828;}
	.st6{fill:#D4B08C;}
	.st7{fill:#527990;}
	.st8{fill:#FDDFB0;}
	.st9{fill:#DCC3A7;}
	.st10{fill:#262626;}
	.st11{fill:none;stroke:#CC9872;stroke-width:2;}
	.st12{fill:none;stroke:#BB8660;stroke-width:2;}
	.st13{fill:#512F10;}
	.st14{fill:#683C11;}
	.st15{fill:#CED5DA;}
</style>
<g>
	<defs>
		<circle id="SVGID_1_" cx="50" cy="50" r="49.4"/>
	</defs>
	<clipPath id="SVGID_2_">
		<use xlink:href="#SVGID_1_"  style="overflow:visible;"/>
	</clipPath>
	<g class="st0">
		<circle class="st1" cx="50" cy="50" r="49.4"/>
		<g>
			<g>
				<path class="st2" d="M70.4,79.2c-0.7,0.1-1.5,0.3-2,0.5c-3.2,1.9-13.3,7.1-18.5,8.3c-5.2-1.2-15.3-6.4-18.5-8.3
					c-0.5-0.3-1.2-0.4-2-0.5c1.9-0.5,3.7-0.9,5.1-1.3c1.8-0.5,5.4-1.4,5.4-4.4v-7.7c0-0.4,0-0.7,0-0.7h19.9c0,0,0,2.8,0,5.5v2.8
					c0,3.1,3.6,4,5.4,4.4C66.8,78.3,68.6,78.7,70.4,79.2z"/>
				<g>
					<g>
						<path class="st3" d="M86.8,87.7v14.6c0,1.7-1.4,3.1-3.1,3.1H16.3c-1.7,0-3.1-1.4-3.1-3.1V87.7c0-4.5,3.5-9.4,7.9-10.8l4.3-0.8
							l3.9-0.7l7-1.3l1.1-0.2c3.5,2.7,8.5,8.3,12.5,8.3s9-5.6,12.5-8.3l1.1,0.2l6.4,1.2l4.5,0.8l4.3,0.8
							C83.2,78.3,86.8,83.1,86.8,87.7z"/>
					</g>
				</g>
				<path class="st4" d="M70.1,75.3l-7.9,30.1H38.3l-9-30l7-1.3l1.1-0.2c3.5,2.7,8.5,8.3,12.5,8.3s9-5.6,12.5-8.3l1.1,0.2L70.1,75.3
					z"/>
				<g>
					<path class="st5" d="M42.4,105.4h-9.6c-3.1-11.4-7.6-29.1-7.6-29.1l0.3-0.2l10.9-2L42.4,105.4z"/>
					<path class="st5" d="M74.8,76.3c0,0-4.5,17.7-7.6,29.1h-9.6l6-31.3l10.9,2L74.8,76.3z"/>
				</g>
				<path class="st6" d="M59.9,63.2c0,0,0,2.8,0,5.5c-3.2,2.4-7.6,3.5-10.1,3.6h0.4c-2.8-0.1-6.6-1.4-10.1-4.5v-4
					c0.1-0.3,0.2-0.5,0.2-0.7c0.1-0.2,0.1-0.4,0.1-0.5c0.3,0.2,0.9,0.4,1.9,0.5c3.6,0.5,11.4,0.4,15.7,0H59.9z"/>
			</g>
			<g>
				<polygon class="st7" points="51.5,84.4 50,85.1 48.5,84.4 46.8,103.9 50,103.9 53.2,103.9 				"/>
			</g>
			<g>
				<path class="st7" d="M52.1,83.9c0,0.6-0.5,1.1-1.1,1.1h-2.1c-0.6,0-1.1-0.5-1.1-1.1v-2.3c0-0.6,0.5-1.1,1.1-1.1h2.1
					c0.6,0,1.1,0.5,1.1,1.1V83.9z"/>
			</g>
			<g>
				<g>
					<g>
						<g>
							<path class="st8" d="M72,42c0,1-0.1,2-0.2,2.9c0,0.2,0,0.3-0.1,0.5c-1.5,11.9-10.7,25-21.9,25c-11.2,0-20.4-13.2-21.9-25.1
								c0-0.1,0-0.2,0-0.4c-0.1-1-0.2-2-0.2-2.9c0-0.2,0-0.5,0-0.7c0-2.1,0.4-4.1,0.9-6c1.1-3.7,3.1-7.1,5.6-9.8
								c0.1-0.1,0.3-0.3,0.4-0.4c3.9-3.9,9.2-6.4,15.1-6.4c5.8,0,11.1,2.4,15,6.3c0.1,0.1,0.2,0.2,0.3,0.3c2.6,2.7,4.6,6.1,5.7,9.9
								v0c0.6,1.9,0.9,3.9,0.9,6C72,41.5,72,41.7,72,42z"/>
						</g>
					</g>
					<g>
						<path class="st9" d="M71.9,41.2c-2.3,4-2.6,13.7-9,16.4c-1.2,0.5-3.6-1.8-4.9-2.2c-3.9-1.2-11-1.4-16.2,0
							c-1.3,0.4-3.9,2.8-4.9,2.2c-6.3-3.7-6.7-12.4-9-16.4c0,0.2,0,0.5,0,0.7c0,1,0.1,2,0.2,2.9c0,0.1,0,0.2,0,0.4
							c1.5,11.9,10.6,25.1,21.9,25.1c11.2,0,20.3-13.1,21.9-25c0-0.2,0-0.3,0.1-0.5c0.1-1,0.2-2,0.2-2.9C72,41.7,72,41.5,71.9,41.2z
							 M54.9,65.3c-1.8,0-3.3-1.5-3.3-3.3h-3.3c0,1.8-1.5,3.3-3.3,3.3c-1.8,0-3.3-1.5-3.3-3.3c0-1.8,1.5-3.3,3.3-3.3h10
							c1.8,0,3.3,1.5,3.3,3.3C58.2,63.8,56.7,65.3,54.9,65.3z"/>
					</g>
				</g>
				<g>
					<circle class="st10" cx="58.7" cy="46" r="2"/>
					<circle class="st10" cx="40.9" cy="46" r="2"/>
					<path class="st11" d="M64.1,42.1c0,0-1.1-3-6-3c-3.4,0-5.3,1.5-6.3,3"/>
					<g>
						<path class="st11" d="M35.3,42.1c0,0,1.1-3,6-3c3.4,0,5.3,1.5,6.3,3"/>
						<path class="st12" d="M49.9,45.1c0,1.9,0,8.9,0,8.9"/>
						<path class="st11" d="M64.4,42.1c0,0-1.1-3-6-3c-3.4,0-5.3,1.5-6.3,3"/>
					</g>
				</g>
				<g>
					<g>
						<g>
							<path class="st13" d="M40.6,14.7c-1.5,0-1.6,0-3.1,0c-6,0-10.9,4.9-10.9,10.9c0,5.6,1.2,15.5,1.2,15.5s2.1-7.9,9.7-10.9
								C42.1,28.4,40.6,14.7,40.6,14.7z"/>
						</g>
					</g>
				</g>
				<g>
					<g>
						<path class="st14" d="M39,14.8c6.2-9.6,22.3-1.6,32.6-1.6c1.6,2.2,3,19.1,0.4,27.9l-5-7.8c0,0-14.2,5.2-29.5-3"/>
					</g>
				</g>
				<path class="st12" d="M54.6,59.9c-2,0-9.4,0-9.4,0"/>
			</g>
			<g>
				<g>
					<path class="st15" d="M50,80.5l-4.5,4.7c-0.5,0.5-1.2,0.4-1.6-0.1L36,73.7l2.5-2.6c0.4-0.4,1.1-0.4,1.5,0L50,80.5z"/>
				</g>
				<g>
					<path class="st15" d="M50,80.5l4.5,4.7c0.5,0.5,1.2,0.4,1.6-0.1L64,73.7L61.5,71c-0.4-0.4-1.1-0.4-1.5,0L50,80.5z"/>
				</g>
			</g>
		</g>
	</g>
</g>
</svg>
